comName,sciName,locName,howMany
American Coot,Fulica americana,Baton Rouge--University Lakes,NA
American Crow,Corvus brachyrhynchos,Baton Rouge--University Lakes,2
American Goldfinch,Spinus tristis,Baton Rouge--University Lakes,2
American Robin,Turdus migratorius,Baton Rouge--University Lakes,53
American White Pelican,Pelecanus erythrorhynchos,Baton Rouge--University Lakes,44
Anhinga,Anhinga anhinga,Baton Rouge--University Lakes,1
Bald Eagle,Haliaeetus leucocephalus,Baton Rouge--University Lakes,1
Barn Swallow,Hirundo rustica,Baton Rouge--University Lakes,15
Belted Kingfisher,Megaceryle alcyon,Baton Rouge--University Lakes,2
Black-crowned Night Heron,Nycticorax nycticorax,Baton Rouge--University Lakes,18
Blue Jay,Cyanocitta cristata,Baton Rouge--University Lakes,34
Blue-gray Gnatcatcher,Polioptila caerulea,Baton Rouge--University Lakes,4
Blue-winged Teal,Spatula discors,Baton Rouge--University Lakes,22
Brown Thrasher,Toxostoma rufum,Baton Rouge--University Lakes,7
Brown-headed Cowbird,Molothrus ater,Baton Rouge--University Lakes,10
Canada Goose,Branta canadensis,Baton Rouge--University Lakes,53
Carolina Chickadee,Poecile carolinensis,Baton Rouge--University Lakes,15
Carolina Wren,Thryothorus ludovicianus,Baton Rouge--University Lakes,12
Cedar Waxwing,Bombycilla cedrorum,Baton Rouge--University Lakes,3
Chimney Swift,Chaetura pelagica,Baton Rouge--University Lakes,13
Chipping Sparrow,Spizella passerina,Baton Rouge--University Lakes,2
Chuck-will's-widow,Antrostomus carolinensis,Baton Rouge--University Lakes,1
Common Grackle,Quiscalus quiscula,Baton Rouge--University Lakes,25
Double-crested Cormorant,Nannopterum auritum,Baton Rouge--University Lakes,243
Downy Woodpecker,Dryobates pubescens,Baton Rouge--University Lakes,12
Eastern Bluebird,Sialia sialis,Baton Rouge--University Lakes,2
Eastern Kingbird,Tyrannus tyrannus,Baton Rouge--University Lakes,5
Eastern Phoebe,Sayornis phoebe,Baton Rouge--University Lakes,4
European Starling,Sturnus vulgaris,Baton Rouge--University Lakes,22
Fish Crow,Corvus ossifragus,Baton Rouge--University Lakes,13
Golden-crowned Kinglet,Regulus satrapa,Baton Rouge--University Lakes,1
Graylag Goose,Anser anser,Baton Rouge--University Lakes,6
Great Blue Heron,Ardea herodias,Baton Rouge--University Lakes,9
Great Egret,Ardea alba,Baton Rouge--University Lakes,32
Great-tailed Grackle,Quiscalus mexicanus,Baton Rouge--University Lakes,1
Greater White-fronted Goose,Anser albifrons,Baton Rouge--University Lakes,1
Green Heron,Butorides virescens,Baton Rouge--University Lakes,1
Herring Gull,Larus argentatus,Baton Rouge--University Lakes,1
Hooded Merganser,Lophodytes cucullatus,Baton Rouge--University Lakes,2
House Finch,Haemorhous mexicanus,Baton Rouge--University Lakes,8
House Sparrow,Passer domesticus,Baton Rouge--University Lakes,58
Little Blue Heron,Egretta caerulea,Baton Rouge--University Lakes,6
Mallard,Anas platyrhynchos,Baton Rouge--University Lakes,39
Merlin,Falco columbarius,Baton Rouge--University Lakes,1
Mississippi Kite,Ictinia mississippiensis,Baton Rouge--University Lakes,1
Mourning Dove,Zenaida macroura,Baton Rouge--University Lakes,7
Muscovy Duck,Cairina moschata,Baton Rouge--University Lakes,60
Neotropic Cormorant,Nannopterum brasilianum,Baton Rouge--University Lakes,29
Northern Cardinal,Cardinalis cardinalis,Baton Rouge--University Lakes,54
Northern Mockingbird,Mimus polyglottos,Baton Rouge--University Lakes,22
Northern Parula,Setophaga americana,Baton Rouge--University Lakes,1
Northern Rough-winged Swallow,Stelgidopteryx serripennis,Baton Rouge--University Lakes,1
Orange-crowned Warbler,Leiothlypis celata,Baton Rouge--University Lakes,3
Osprey,Pandion haliaetus,Baton Rouge--University Lakes,2
Palm Warbler,Setophaga palmarum,Baton Rouge--University Lakes,1
Pied-billed Grebe,Podilymbus podiceps,Baton Rouge--University Lakes,20
Pine Warbler,Setophaga pinus,Baton Rouge--University Lakes,3
Purple Martin,Progne subis,Baton Rouge--University Lakes,37
Red-bellied Woodpecker,Melanerpes carolinus,Baton Rouge--University Lakes,3
Red-tailed Hawk,Buteo jamaicensis,Baton Rouge--University Lakes,2
Red-winged Blackbird,Agelaius phoeniceus,Baton Rouge--University Lakes,210
Ring-billed Gull,Larus delawarensis,Baton Rouge--University Lakes,9
Rock Pigeon,Columba livia,Baton Rouge--University Lakes,7
Ruby-crowned Kinglet,Corthylio calendula,Baton Rouge--University Lakes,32
Ruddy Duck,Oxyura jamaicensis,Baton Rouge--University Lakes,2
Sharp-shinned Hawk,Accipiter striatus,Baton Rouge--University Lakes,1
Snowy Egret,Egretta thula,Baton Rouge--University Lakes,13
Song Sparrow,Melospiza melodia,Baton Rouge--University Lakes,1
Spotted Sandpiper,Actitis macularius,Baton Rouge--University Lakes,1
Swan Goose,Anser cygnoides,Baton Rouge--University Lakes,7
Tree Swallow,Tachycineta bicolor,Baton Rouge--University Lakes,45
Tricolored Heron,Egretta tricolor,Baton Rouge--University Lakes,4
Tufted Titmouse,Baeolophus bicolor,Baton Rouge--University Lakes,1
Turkey Vulture,Cathartes aura,Baton Rouge--University Lakes,2
White Ibis,Eudocimus albus,Baton Rouge--University Lakes,8
White-eyed Vireo,Vireo griseus,Baton Rouge--University Lakes,1
White-throated Sparrow,Zonotrichia albicollis,Baton Rouge--University Lakes,12
White-winged Dove,Zenaida asiatica,Baton Rouge--University Lakes,1
Wood Duck,Aix sponsa,Baton Rouge--University Lakes,104
Yellow-rumped Warbler,Setophaga coronata,Baton Rouge--University Lakes,140
